<?xml version="1.0" encoding="utf-8"?>
<!-- Generator: Adobe Illustrator 24.0.1, SVG Export Plug-In . SVG Version: 6.00 Build 0)  -->
<svg version="1.1" id="Capa_1" xmlns="http://www.w3.org/2000/svg" xmlns:xlink="http://www.w3.org/1999/xlink" x="0px" y="0px"
	 viewBox="0 0 93.3 73.9" style="enable-background:new 0 0 93.3 73.9;" xml:space="preserve">
<g>
	<path d="M46.7,66c0,1.6-0.9,3.1-2.4,3.8c-0.6,0.3-1.2,0.4-1.8,0.4c-1,0-1.9-0.3-2.7-1L16.6,50.1H4.3c-2.3,0-4.2-1.9-4.2-4.2V29
		c0-2.3,1.9-4.2,4.2-4.2h12.3L39.7,5.6c1.3-1,3-1.3,4.5-0.6c1.5,0.7,2.4,2.2,2.4,3.8L46.7,66L46.7,66z M62.9,59.4
		c-0.1,0-0.2,0-0.3,0c-1.1,0-2.2-0.4-3-1.2L59,57.6c-1.5-1.5-1.7-3.8-0.4-5.5c3.2-4.3,4.8-9.3,4.8-14.6c0-5.7-1.9-11.1-5.5-15.5
		c-1.4-1.7-1.2-4.1,0.3-5.6l0.6-0.6c0.8-0.8,2-1.3,3.2-1.2c1.2,0.1,2.3,0.6,3.1,1.5c5,6.1,7.6,13.5,7.6,21.4
		c0,7.4-2.3,14.4-6.7,20.2C65.2,58.7,64.1,59.3,62.9,59.4z M80.4,72.4c-0.8,0.9-1.9,1.4-3.1,1.5c-0.1,0-0.1,0-0.2,0
		c-1.1,0-2.2-0.4-3-1.2l-0.6-0.6c-1.6-1.6-1.7-4-0.2-5.7c6.8-8.1,10.6-18.4,10.6-29c0-11-4-21.6-11.3-29.8c-1.5-1.7-1.4-4.2,0.2-5.8
		l0.6-0.6C74.2,0.4,75.2,0,76.4,0c1.2,0,2.3,0.5,3,1.4c8.8,9.9,13.7,22.7,13.7,36C93.2,50.2,88.6,62.6,80.4,72.4z"/>
</g>
</svg>
